<?xml version="1.0" encoding="utf-8" standalone="no"?>
<!DOCTYPE svg PUBLIC "-//W3C//DTD SVG 1.1//EN"
  "http://www.w3.org/Graphics/SVG/1.1/DTD/svg11.dtd">
<svg xmlns:xlink="http://www.w3.org/1999/xlink" width="636.279771pt" height="310.684875pt" viewBox="0 0 636.279771 310.684875" xmlns="http://www.w3.org/2000/svg" version="1.1">
 <metadata>
  <rdf:RDF xmlns:dc="http://purl.org/dc/elements/1.1/" xmlns:cc="http://creativecommons.org/ns#" xmlns:rdf="http://www.w3.org/1999/02/22-rdf-syntax-ns#">
   <cc:Work>
    <dc:type rdf:resource="http://purl.org/dc/dcmitype/StillImage"/>
    <dc:date>2022-08-11T10:15:03.028501</dc:date>
    <dc:format>image/svg+xml</dc:format>
    <dc:creator>
     <cc:Agent>
      <dc:title>Matplotlib v3.5.2, https://matplotlib.org/</dc:title>
     </cc:Agent>
    </dc:creator>
   </cc:Work>
  </rdf:RDF>
 </metadata>
 <defs>
  <style type="text/css">*{stroke-linejoin: round; stroke-linecap: butt}</style>
 </defs>
 <g id="figure_1">
  <g id="patch_1">
   <path d="M 0 310.684875 
L 636.279771 310.684875 
L 636.279771 0 
L 0 0 
L 0 310.684875 
z
" style="fill: none"/>
  </g>
  <g id="axes_1">
   <g id="patch_2">
    <path d="M 172.194687 270.43375 
L 618.594687 270.43375 
L 618.594687 25.81375 
L 172.194687 25.81375 
z
" style="fill: #ffffff"/>
   </g>
   <g id="line2d_1">
    <path d="M 235.373475 105.947888 
L 235.373475 36.932841 
" clip-path="url(#p10680dd705)" style="fill: none; stroke-dasharray: 1.85,0.8; stroke-dashoffset: 0; stroke: #bbbbbb; stroke-width: 0.5"/>
   </g>
   <g id="line2d_2">
    <path d="M 264.358922 144.289581 
L 264.358922 75.274534 
" clip-path="url(#p10680dd705)" style="fill: none; stroke-dasharray: 1.85,0.8; stroke-dashoffset: 0; stroke: #bbbbbb; stroke-width: 0.5"/>
   </g>
   <g id="line2d_3">
    <path d="M 172.194687 243.977982 
L 618.594687 243.977982 
" clip-path="url(#p10680dd705)" style="fill: none; stroke-dasharray: 0.5,2.5; stroke-dashoffset: 0; stroke: #cccccc; stroke-width: 0.5"/>
   </g>
   <g id="line2d_4">
    <path d="M 172.194687 205.636289 
L 618.594687 205.636289 
" clip-path="url(#p10680dd705)" style="fill: none; stroke-dasharray: 0.5,2.5; stroke-dashoffset: 0; stroke: #cccccc; stroke-width: 0.5"/>
   </g>
   <g id="line2d_5">
    <path d="M 172.194687 167.294596 
L 618.594687 167.294596 
" clip-path="url(#p10680dd705)" style="fill: none; stroke-dasharray: 0.5,2.5; stroke-dashoffset: 0; stroke: #cccccc; stroke-width: 0.5"/>
   </g>
   <g id="line2d_6">
    <path d="M 172.194687 128.952904 
L 618.594687 128.952904 
" clip-path="url(#p10680dd705)" style="fill: none; stroke-dasharray: 0.5,2.5; stroke-dashoffset: 0; stroke: #cccccc; stroke-width: 0.5"/>
   </g>
   <g id="line2d_7">
    <path d="M 172.194687 90.611211 
L 618.594687 90.611211 
" clip-path="url(#p10680dd705)" style="fill: none; stroke-dasharray: 0.5,2.5; stroke-dashoffset: 0; stroke: #cccccc; stroke-width: 0.5"/>
   </g>
   <g id="line2d_8">
    <path d="M 172.194687 52.269518 
L 618.594687 52.269518 
" clip-path="url(#p10680dd705)" style="fill: none; stroke-dasharray: 0.5,2.5; stroke-dashoffset: 0; stroke: #cccccc; stroke-width: 0.5"/>
   </g>
   <g id="line2d_9">
    <path d="M 229.268975 270.43375 
L 229.268975 229.66375 
" clip-path="url(#p10680dd705)" style="fill: none; stroke-dasharray: 1.85,0.8; stroke-dashoffset: 0; stroke: #bbbbbb; stroke-width: 0.5"/>
   </g>
   <g id="line2d_10">
    <path d="M 561.713553 270.43375 
L 561.713553 25.81375 
" clip-path="url(#p10680dd705)" style="fill: none; stroke-dasharray: 1.85,0.8; stroke-dashoffset: 0; stroke: #bbbbbb; stroke-width: 0.5"/>
   </g>
   <g id="patch_3">
    <path d="M 232.047138 67.606195 
L 598.303778 67.606195 
L 598.303778 36.932841 
L 232.047138 36.932841 
L 232.047138 67.606195 
z
" clip-path="url(#p10680dd705)" style="fill: none; opacity: 0"/>
   </g>
   <g id="patch_4">
    <path d="M 242.459799 144.289581 
L 300.949144 144.289581 
L 300.949144 113.616226 
L 242.459799 113.616226 
L 242.459799 144.289581 
z
" clip-path="url(#p10680dd705)" style="fill: none; opacity: 0"/>
   </g>
   <g id="patch_5">
    <path d="M 229.258018 182.631274 
L 282.376374 182.631274 
L 282.376374 151.957919 
L 229.258018 151.957919 
L 229.258018 182.631274 
z
" clip-path="url(#p10680dd705)" style="fill: none; opacity: 0"/>
   </g>
   <g id="patch_6">
    <path d="M 225.749413 220.972966 
L 269.174519 220.972966 
L 269.174519 190.299612 
L 225.749413 190.299612 
L 225.749413 220.972966 
z
" clip-path="url(#p10680dd705)" style="fill: none; opacity: 0"/>
   </g>
   <g id="patch_7">
    <path d="M 267.685259 105.947888 
L 198.783253 105.947888 
L 198.783253 75.274534 
L 267.685259 75.274534 
L 267.685259 105.947888 
z
" clip-path="url(#p10680dd705)" style="fill: none; opacity: 0"/>
   </g>
   <g id="patch_8">
    <path d="M 232.595417 259.314659 
L 192.485597 259.314659 
L 192.485597 228.641305 
L 232.595417 228.641305 
L 232.595417 259.314659 
z
" clip-path="url(#p10680dd705)" style="fill: none; opacity: 0"/>
   </g>
   <g id="patch_9">
    <path d="M 561.713579 52.269518 
L 555.953579 67.606195 
L 555.953579 67.606195 
L 235.373475 67.606195 
L 235.373475 36.932841 
L 555.953579 36.932841 
L 555.953579 36.932841 
z
" clip-path="url(#p10680dd705)" style="fill: #ff0051; stroke: #ff0051; stroke-linejoin: miter"/>
   </g>
   <g id="patch_10">
    <path d="M 264.358945 128.952904 
L 258.598945 144.289581 
L 258.598945 144.289581 
L 245.786136 144.289581 
L 245.786136 113.616226 
L 258.598945 113.616226 
L 258.598945 113.616226 
z
" clip-path="url(#p10680dd705)" style="fill: #ff0051; stroke: #ff0051; stroke-linejoin: miter"/>
   </g>
   <g id="patch_11">
    <path d="M 245.786174 167.294596 
L 240.026174 182.631274 
L 240.026174 182.631274 
L 232.584355 182.631274 
L 232.584355 151.957919 
L 240.026174 151.957919 
L 240.026174 151.957919 
z
" clip-path="url(#p10680dd705)" style="fill: #ff0051; stroke: #ff0051; stroke-linejoin: miter"/>
   </g>
   <g id="patch_12">
    <path d="M 232.586087 205.636289 
L 229.077517 220.972966 
L 229.077517 220.972966 
L 229.07575 220.972966 
L 229.07575 190.299612 
L 229.077517 190.299612 
L 229.077517 190.299612 
z
" clip-path="url(#p10680dd705)" style="fill: #ff0051; stroke: #ff0051; stroke-linejoin: miter"/>
   </g>
   <g id="patch_13">
    <path d="M 235.373452 90.611211 
L 241.133452 75.274534 
L 241.133452 75.274534 
L 264.358922 75.274534 
L 264.358922 105.947888 
L 241.133452 105.947888 
L 241.133452 105.947888 
z
" clip-path="url(#p10680dd705)" style="fill: #008bfb; stroke: #008bfb; stroke-linejoin: miter"/>
   </g>
   <g id="patch_14">
    <path d="M 229.074028 243.977982 
L 229.267313 228.641305 
L 229.267313 228.641305 
L 229.26908 228.641305 
L 229.26908 259.314659 
L 229.267313 259.314659 
L 229.267313 259.314659 
z
" clip-path="url(#p10680dd705)" style="fill: #008bfb; stroke: #008bfb; stroke-linejoin: miter"/>
   </g>
   <g id="matplotlib.axis_1">
    <g id="xtick_1">
     <g id="line2d_11">
      <defs>
       <path id="mf0b64e787f" d="M 0 0 
L 0 3.5 
" style="stroke: #000000; stroke-width: 0.8"/>
      </defs>
      <g>
       <use xlink:href="#mf0b64e787f" x="172.707066" y="270.43375" style="stroke: #000000; stroke-width: 0.8"/>
      </g>
     </g>
     <g id="text_1">
      <!-- 0.65 -->
      <g transform="translate(158.23441 287.311719)scale(0.13 -0.13)">
       <defs>
        <path id="DejaVuSans-30" d="M 2034 4250 
Q 1547 4250 1301 3770 
Q 1056 3291 1056 2328 
Q 1056 1369 1301 889 
Q 1547 409 2034 409 
Q 2525 409 2770 889 
Q 3016 1369 3016 2328 
Q 3016 3291 2770 3770 
Q 2525 4250 2034 4250 
z
M 2034 4750 
Q 2819 4750 3233 4129 
Q 3647 3509 3647 2328 
Q 3647 1150 3233 529 
Q 2819 -91 2034 -91 
Q 1250 -91 836 529 
Q 422 1150 422 2328 
Q 422 3509 836 4129 
Q 1250 4750 2034 4750 
z
" transform="scale(0.015625)"/>
        <path id="DejaVuSans-2e" d="M 684 794 
L 1344 794 
L 1344 0 
L 684 0 
L 684 794 
z
" transform="scale(0.015625)"/>
        <path id="DejaVuSans-36" d="M 2113 2584 
Q 1688 2584 1439 2293 
Q 1191 2003 1191 1497 
Q 1191 994 1439 701 
Q 1688 409 2113 409 
Q 2538 409 2786 701 
Q 3034 994 3034 1497 
Q 3034 2003 2786 2293 
Q 2538 2584 2113 2584 
z
M 3366 4563 
L 3366 3988 
Q 3128 4100 2886 4159 
Q 2644 4219 2406 4219 
Q 1781 4219 1451 3797 
Q 1122 3375 1075 2522 
Q 1259 2794 1537 2939 
Q 1816 3084 2150 3084 
Q 2853 3084 3261 2657 
Q 3669 2231 3669 1497 
Q 3669 778 3244 343 
Q 2819 -91 2113 -91 
Q 1303 -91 875 529 
Q 447 1150 447 2328 
Q 447 3434 972 4092 
Q 1497 4750 2381 4750 
Q 2619 4750 2861 4703 
Q 3103 4656 3366 4563 
z
" transform="scale(0.015625)"/>
        <path id="DejaVuSans-35" d="M 691 4666 
L 3169 4666 
L 3169 4134 
L 1269 4134 
L 1269 2991 
Q 1406 3038 1543 3061 
Q 1681 3084 1819 3084 
Q 2600 3084 3056 2656 
Q 3513 2228 3513 1497 
Q 3513 744 3044 326 
Q 2575 -91 1722 -91 
Q 1428 -91 1123 -41 
Q 819 9 494 109 
L 494 744 
Q 775 591 1075 516 
Q 1375 441 1709 441 
Q 2250 441 2565 725 
Q 2881 1009 2881 1497 
Q 2881 1984 2565 2268 
Q 2250 2553 1709 2553 
Q 1456 2553 1204 2497 
Q 953 2441 691 2322 
L 691 4666 
z
" transform="scale(0.015625)"/>
       </defs>
       <use xlink:href="#DejaVuSans-30"/>
       <use xlink:href="#DejaVuSans-2e" x="63.623047"/>
       <use xlink:href="#DejaVuSans-36" x="95.410156"/>
       <use xlink:href="#DejaVuSans-35" x="159.033203"/>
      </g>
     </g>
    </g>
    <g id="xtick_2">
     <g id="line2d_12">
      <g>
       <use xlink:href="#mf0b64e787f" x="261.087075" y="270.43375" style="stroke: #000000; stroke-width: 0.8"/>
      </g>
     </g>
     <g id="text_2">
      <!-- 0.70 -->
      <g transform="translate(246.614419 287.311719)scale(0.13 -0.13)">
       <defs>
        <path id="DejaVuSans-37" d="M 525 4666 
L 3525 4666 
L 3525 4397 
L 1831 0 
L 1172 0 
L 2766 4134 
L 525 4134 
L 525 4666 
z
" transform="scale(0.015625)"/>
       </defs>
       <use xlink:href="#DejaVuSans-30"/>
       <use xlink:href="#DejaVuSans-2e" x="63.623047"/>
       <use xlink:href="#DejaVuSans-37" x="95.410156"/>
       <use xlink:href="#DejaVuSans-30" x="159.033203"/>
      </g>
     </g>
    </g>
    <g id="xtick_3">
     <g id="line2d_13">
      <g>
       <use xlink:href="#mf0b64e787f" x="349.467085" y="270.43375" style="stroke: #000000; stroke-width: 0.8"/>
      </g>
     </g>
     <g id="text_3">
      <!-- 0.75 -->
      <g transform="translate(334.994429 287.311719)scale(0.13 -0.13)">
       <use xlink:href="#DejaVuSans-30"/>
       <use xlink:href="#DejaVuSans-2e" x="63.623047"/>
       <use xlink:href="#DejaVuSans-37" x="95.410156"/>
       <use xlink:href="#DejaVuSans-35" x="159.033203"/>
      </g>
     </g>
    </g>
    <g id="xtick_4">
     <g id="line2d_14">
      <g>
       <use xlink:href="#mf0b64e787f" x="437.847095" y="270.43375" style="stroke: #000000; stroke-width: 0.8"/>
      </g>
     </g>
     <g id="text_4">
      <!-- 0.80 -->
      <g transform="translate(423.374439 287.311719)scale(0.13 -0.13)">
       <defs>
        <path id="DejaVuSans-38" d="M 2034 2216 
Q 1584 2216 1326 1975 
Q 1069 1734 1069 1313 
Q 1069 891 1326 650 
Q 1584 409 2034 409 
Q 2484 409 2743 651 
Q 3003 894 3003 1313 
Q 3003 1734 2745 1975 
Q 2488 2216 2034 2216 
z
M 1403 2484 
Q 997 2584 770 2862 
Q 544 3141 544 3541 
Q 544 4100 942 4425 
Q 1341 4750 2034 4750 
Q 2731 4750 3128 4425 
Q 3525 4100 3525 3541 
Q 3525 3141 3298 2862 
Q 3072 2584 2669 2484 
Q 3125 2378 3379 2068 
Q 3634 1759 3634 1313 
Q 3634 634 3220 271 
Q 2806 -91 2034 -91 
Q 1263 -91 848 271 
Q 434 634 434 1313 
Q 434 1759 690 2068 
Q 947 2378 1403 2484 
z
M 1172 3481 
Q 1172 3119 1398 2916 
Q 1625 2713 2034 2713 
Q 2441 2713 2670 2916 
Q 2900 3119 2900 3481 
Q 2900 3844 2670 4047 
Q 2441 4250 2034 4250 
Q 1625 4250 1398 4047 
Q 1172 3844 1172 3481 
z
" transform="scale(0.015625)"/>
       </defs>
       <use xlink:href="#DejaVuSans-30"/>
       <use xlink:href="#DejaVuSans-2e" x="63.623047"/>
       <use xlink:href="#DejaVuSans-38" x="95.410156"/>
       <use xlink:href="#DejaVuSans-30" x="159.033203"/>
      </g>
     </g>
    </g>
    <g id="xtick_5">
     <g id="line2d_15">
      <g>
       <use xlink:href="#mf0b64e787f" x="526.227105" y="270.43375" style="stroke: #000000; stroke-width: 0.8"/>
      </g>
     </g>
     <g id="text_5">
      <!-- 0.85 -->
      <g transform="translate(511.754448 287.311719)scale(0.13 -0.13)">
       <use xlink:href="#DejaVuSans-30"/>
       <use xlink:href="#DejaVuSans-2e" x="63.623047"/>
       <use xlink:href="#DejaVuSans-38" x="95.410156"/>
       <use xlink:href="#DejaVuSans-35" x="159.033203"/>
      </g>
     </g>
    </g>
    <g id="xtick_6">
     <g id="line2d_16">
      <g>
       <use xlink:href="#mf0b64e787f" x="614.607114" y="270.43375" style="stroke: #000000; stroke-width: 0.8"/>
      </g>
     </g>
     <g id="text_6">
      <!-- 0.90 -->
      <g transform="translate(600.134458 287.311719)scale(0.13 -0.13)">
       <defs>
        <path id="DejaVuSans-39" d="M 703 97 
L 703 672 
Q 941 559 1184 500 
Q 1428 441 1663 441 
Q 2288 441 2617 861 
Q 2947 1281 2994 2138 
Q 2813 1869 2534 1725 
Q 2256 1581 1919 1581 
Q 1219 1581 811 2004 
Q 403 2428 403 3163 
Q 403 3881 828 4315 
Q 1253 4750 1959 4750 
Q 2769 4750 3195 4129 
Q 3622 3509 3622 2328 
Q 3622 1225 3098 567 
Q 2575 -91 1691 -91 
Q 1453 -91 1209 -44 
Q 966 3 703 97 
z
M 1959 2075 
Q 2384 2075 2632 2365 
Q 2881 2656 2881 3163 
Q 2881 3666 2632 3958 
Q 2384 4250 1959 4250 
Q 1534 4250 1286 3958 
Q 1038 3666 1038 3163 
Q 1038 2656 1286 2365 
Q 1534 2075 1959 2075 
z
" transform="scale(0.015625)"/>
       </defs>
       <use xlink:href="#DejaVuSans-30"/>
       <use xlink:href="#DejaVuSans-2e" x="63.623047"/>
       <use xlink:href="#DejaVuSans-39" x="95.410156"/>
       <use xlink:href="#DejaVuSans-30" x="159.033203"/>
      </g>
     </g>
    </g>
   </g>
   <g id="matplotlib.axis_2">
    <g id="ytick_1">
     <g id="text_7">
      <!-- 491 = Seitenanzahl -->
      <g style="fill: #999999" transform="translate(37.18125 248.916966)scale(0.13 -0.13)">
       <defs>
        <path id="DejaVuSans-34" d="M 2419 4116 
L 825 1625 
L 2419 1625 
L 2419 4116 
z
M 2253 4666 
L 3047 4666 
L 3047 1625 
L 3713 1625 
L 3713 1100 
L 3047 1100 
L 3047 0 
L 2419 0 
L 2419 1100 
L 313 1100 
L 313 1709 
L 2253 4666 
z
" transform="scale(0.015625)"/>
        <path id="DejaVuSans-31" d="M 794 531 
L 1825 531 
L 1825 4091 
L 703 3866 
L 703 4441 
L 1819 4666 
L 2450 4666 
L 2450 531 
L 3481 531 
L 3481 0 
L 794 0 
L 794 531 
z
" transform="scale(0.015625)"/>
        <path id="DejaVuSans-20" transform="scale(0.015625)"/>
        <path id="DejaVuSans-3d" d="M 678 2906 
L 4684 2906 
L 4684 2381 
L 678 2381 
L 678 2906 
z
M 678 1631 
L 4684 1631 
L 4684 1100 
L 678 1100 
L 678 1631 
z
" transform="scale(0.015625)"/>
        <path id="DejaVuSans-53" d="M 3425 4513 
L 3425 3897 
Q 3066 4069 2747 4153 
Q 2428 4238 2131 4238 
Q 1616 4238 1336 4038 
Q 1056 3838 1056 3469 
Q 1056 3159 1242 3001 
Q 1428 2844 1947 2747 
L 2328 2669 
Q 3034 2534 3370 2195 
Q 3706 1856 3706 1288 
Q 3706 609 3251 259 
Q 2797 -91 1919 -91 
Q 1588 -91 1214 -16 
Q 841 59 441 206 
L 441 856 
Q 825 641 1194 531 
Q 1563 422 1919 422 
Q 2459 422 2753 634 
Q 3047 847 3047 1241 
Q 3047 1584 2836 1778 
Q 2625 1972 2144 2069 
L 1759 2144 
Q 1053 2284 737 2584 
Q 422 2884 422 3419 
Q 422 4038 858 4394 
Q 1294 4750 2059 4750 
Q 2388 4750 2728 4690 
Q 3069 4631 3425 4513 
z
" transform="scale(0.015625)"/>
        <path id="DejaVuSans-65" d="M 3597 1894 
L 3597 1613 
L 953 1613 
Q 991 1019 1311 708 
Q 1631 397 2203 397 
Q 2534 397 2845 478 
Q 3156 559 3463 722 
L 3463 178 
Q 3153 47 2828 -22 
Q 2503 -91 2169 -91 
Q 1331 -91 842 396 
Q 353 884 353 1716 
Q 353 2575 817 3079 
Q 1281 3584 2069 3584 
Q 2775 3584 3186 3129 
Q 3597 2675 3597 1894 
z
M 3022 2063 
Q 3016 2534 2758 2815 
Q 2500 3097 2075 3097 
Q 1594 3097 1305 2825 
Q 1016 2553 972 2059 
L 3022 2063 
z
" transform="scale(0.015625)"/>
        <path id="DejaVuSans-69" d="M 603 3500 
L 1178 3500 
L 1178 0 
L 603 0 
L 603 3500 
z
M 603 4863 
L 1178 4863 
L 1178 4134 
L 603 4134 
L 603 4863 
z
" transform="scale(0.015625)"/>
        <path id="DejaVuSans-74" d="M 1172 4494 
L 1172 3500 
L 2356 3500 
L 2356 3053 
L 1172 3053 
L 1172 1153 
Q 1172 725 1289 603 
Q 1406 481 1766 481 
L 2356 481 
L 2356 0 
L 1766 0 
Q 1100 0 847 248 
Q 594 497 594 1153 
L 594 3053 
L 172 3053 
L 172 3500 
L 594 3500 
L 594 4494 
L 1172 4494 
z
" transform="scale(0.015625)"/>
        <path id="DejaVuSans-6e" d="M 3513 2113 
L 3513 0 
L 2938 0 
L 2938 2094 
Q 2938 2591 2744 2837 
Q 2550 3084 2163 3084 
Q 1697 3084 1428 2787 
Q 1159 2491 1159 1978 
L 1159 0 
L 581 0 
L 581 3500 
L 1159 3500 
L 1159 2956 
Q 1366 3272 1645 3428 
Q 1925 3584 2291 3584 
Q 2894 3584 3203 3211 
Q 3513 2838 3513 2113 
z
" transform="scale(0.015625)"/>
        <path id="DejaVuSans-61" d="M 2194 1759 
Q 1497 1759 1228 1600 
Q 959 1441 959 1056 
Q 959 750 1161 570 
Q 1363 391 1709 391 
Q 2188 391 2477 730 
Q 2766 1069 2766 1631 
L 2766 1759 
L 2194 1759 
z
M 3341 1997 
L 3341 0 
L 2766 0 
L 2766 531 
Q 2569 213 2275 61 
Q 1981 -91 1556 -91 
Q 1019 -91 701 211 
Q 384 513 384 1019 
Q 384 1609 779 1909 
Q 1175 2209 1959 2209 
L 2766 2209 
L 2766 2266 
Q 2766 2663 2505 2880 
Q 2244 3097 1772 3097 
Q 1472 3097 1187 3025 
Q 903 2953 641 2809 
L 641 3341 
Q 956 3463 1253 3523 
Q 1550 3584 1831 3584 
Q 2591 3584 2966 3190 
Q 3341 2797 3341 1997 
z
" transform="scale(0.015625)"/>
        <path id="DejaVuSans-7a" d="M 353 3500 
L 3084 3500 
L 3084 2975 
L 922 459 
L 3084 459 
L 3084 0 
L 275 0 
L 275 525 
L 2438 3041 
L 353 3041 
L 353 3500 
z
" transform="scale(0.015625)"/>
        <path id="DejaVuSans-68" d="M 3513 2113 
L 3513 0 
L 2938 0 
L 2938 2094 
Q 2938 2591 2744 2837 
Q 2550 3084 2163 3084 
Q 1697 3084 1428 2787 
Q 1159 2491 1159 1978 
L 1159 0 
L 581 0 
L 581 4863 
L 1159 4863 
L 1159 2956 
Q 1366 3272 1645 3428 
Q 1925 3584 2291 3584 
Q 2894 3584 3203 3211 
Q 3513 2838 3513 2113 
z
" transform="scale(0.015625)"/>
        <path id="DejaVuSans-6c" d="M 603 4863 
L 1178 4863 
L 1178 0 
L 603 0 
L 603 4863 
z
" transform="scale(0.015625)"/>
       </defs>
       <use xlink:href="#DejaVuSans-34"/>
       <use xlink:href="#DejaVuSans-39" x="63.623047"/>
       <use xlink:href="#DejaVuSans-31" x="127.246094"/>
       <use xlink:href="#DejaVuSans-20" x="190.869141"/>
       <use xlink:href="#DejaVuSans-3d" x="222.65625"/>
       <use xlink:href="#DejaVuSans-20" x="306.445312"/>
       <use xlink:href="#DejaVuSans-53" x="338.232422"/>
       <use xlink:href="#DejaVuSans-65" x="401.708984"/>
       <use xlink:href="#DejaVuSans-69" x="463.232422"/>
       <use xlink:href="#DejaVuSans-74" x="491.015625"/>
       <use xlink:href="#DejaVuSans-65" x="530.224609"/>
       <use xlink:href="#DejaVuSans-6e" x="591.748047"/>
       <use xlink:href="#DejaVuSans-61" x="655.126953"/>
       <use xlink:href="#DejaVuSans-6e" x="716.40625"/>
       <use xlink:href="#DejaVuSans-7a" x="779.785156"/>
       <use xlink:href="#DejaVuSans-61" x="832.275391"/>
       <use xlink:href="#DejaVuSans-68" x="893.554688"/>
       <use xlink:href="#DejaVuSans-6c" x="956.933594"/>
      </g>
     </g>
    </g>
    <g id="ytick_2">
     <g id="text_8">
      <!-- J.R.R. Tolkien = Autor -->
      <g style="fill: #999999" transform="translate(28.353437 210.575274)scale(0.13 -0.13)">
       <defs>
        <path id="DejaVuSans-4a" d="M 628 4666 
L 1259 4666 
L 1259 325 
Q 1259 -519 939 -900 
Q 619 -1281 -91 -1281 
L -331 -1281 
L -331 -750 
L -134 -750 
Q 284 -750 456 -515 
Q 628 -281 628 325 
L 628 4666 
z
" transform="scale(0.015625)"/>
        <path id="DejaVuSans-52" d="M 2841 2188 
Q 3044 2119 3236 1894 
Q 3428 1669 3622 1275 
L 4263 0 
L 3584 0 
L 2988 1197 
Q 2756 1666 2539 1819 
Q 2322 1972 1947 1972 
L 1259 1972 
L 1259 0 
L 628 0 
L 628 4666 
L 2053 4666 
Q 2853 4666 3247 4331 
Q 3641 3997 3641 3322 
Q 3641 2881 3436 2590 
Q 3231 2300 2841 2188 
z
M 1259 4147 
L 1259 2491 
L 2053 2491 
Q 2509 2491 2742 2702 
Q 2975 2913 2975 3322 
Q 2975 3731 2742 3939 
Q 2509 4147 2053 4147 
L 1259 4147 
z
" transform="scale(0.015625)"/>
        <path id="DejaVuSans-54" d="M -19 4666 
L 3928 4666 
L 3928 4134 
L 2272 4134 
L 2272 0 
L 1638 0 
L 1638 4134 
L -19 4134 
L -19 4666 
z
" transform="scale(0.015625)"/>
        <path id="DejaVuSans-6f" d="M 1959 3097 
Q 1497 3097 1228 2736 
Q 959 2375 959 1747 
Q 959 1119 1226 758 
Q 1494 397 1959 397 
Q 2419 397 2687 759 
Q 2956 1122 2956 1747 
Q 2956 2369 2687 2733 
Q 2419 3097 1959 3097 
z
M 1959 3584 
Q 2709 3584 3137 3096 
Q 3566 2609 3566 1747 
Q 3566 888 3137 398 
Q 2709 -91 1959 -91 
Q 1206 -91 779 398 
Q 353 888 353 1747 
Q 353 2609 779 3096 
Q 1206 3584 1959 3584 
z
" transform="scale(0.015625)"/>
        <path id="DejaVuSans-6b" d="M 581 4863 
L 1159 4863 
L 1159 1991 
L 2875 3500 
L 3609 3500 
L 1753 1863 
L 3688 0 
L 2938 0 
L 1159 1709 
L 1159 0 
L 581 0 
L 581 4863 
z
" transform="scale(0.015625)"/>
        <path id="DejaVuSans-41" d="M 2188 4044 
L 1331 1722 
L 3047 1722 
L 2188 4044 
z
M 1831 4666 
L 2547 4666 
L 4325 0 
L 3669 0 
L 3244 1197 
L 1141 1197 
L 716 0 
L 50 0 
L 1831 4666 
z
" transform="scale(0.015625)"/>
        <path id="DejaVuSans-75" d="M 544 1381 
L 544 3500 
L 1119 3500 
L 1119 1403 
Q 1119 906 1312 657 
Q 1506 409 1894 409 
Q 2359 409 2629 706 
Q 2900 1003 2900 1516 
L 2900 3500 
L 3475 3500 
L 3475 0 
L 2900 0 
L 2900 538 
Q 2691 219 2414 64 
Q 2138 -91 1772 -91 
Q 1169 -91 856 284 
Q 544 659 544 1381 
z
M 1991 3584 
L 1991 3584 
z
" transform="scale(0.015625)"/>
        <path id="DejaVuSans-72" d="M 2631 2963 
Q 2534 3019 2420 3045 
Q 2306 3072 2169 3072 
Q 1681 3072 1420 2755 
Q 1159 2438 1159 1844 
L 1159 0 
L 581 0 
L 581 3500 
L 1159 3500 
L 1159 2956 
Q 1341 3275 1631 3429 
Q 1922 3584 2338 3584 
Q 2397 3584 2469 3576 
Q 2541 3569 2628 3553 
L 2631 2963 
z
" transform="scale(0.015625)"/>
       </defs>
       <use xlink:href="#DejaVuSans-4a"/>
       <use xlink:href="#DejaVuSans-2e" x="29.492188"/>
       <use xlink:href="#DejaVuSans-52" x="61.279297"/>
       <use xlink:href="#DejaVuSans-2e" x="127.136719"/>
       <use xlink:href="#DejaVuSans-52" x="158.923828"/>
       <use xlink:href="#DejaVuSans-2e" x="224.78125"/>
       <use xlink:href="#DejaVuSans-20" x="256.568359"/>
       <use xlink:href="#DejaVuSans-54" x="288.355469"/>
       <use xlink:href="#DejaVuSans-6f" x="332.439453"/>
       <use xlink:href="#DejaVuSans-6c" x="393.621094"/>
       <use xlink:href="#DejaVuSans-6b" x="421.404297"/>
       <use xlink:href="#DejaVuSans-69" x="479.314453"/>
       <use xlink:href="#DejaVuSans-65" x="507.097656"/>
       <use xlink:href="#DejaVuSans-6e" x="568.621094"/>
       <use xlink:href="#DejaVuSans-20" x="632"/>
       <use xlink:href="#DejaVuSans-3d" x="663.787109"/>
       <use xlink:href="#DejaVuSans-20" x="747.576172"/>
       <use xlink:href="#DejaVuSans-41" x="779.363281"/>
       <use xlink:href="#DejaVuSans-75" x="847.771484"/>
       <use xlink:href="#DejaVuSans-74" x="911.150391"/>
       <use xlink:href="#DejaVuSans-6f" x="950.359375"/>
       <use xlink:href="#DejaVuSans-72" x="1011.541016"/>
      </g>
     </g>
    </g>
    <g id="ytick_3">
     <g id="text_9">
      <!-- Klett = Verlag -->
      <g style="fill: #999999" transform="translate(74.649687 172.233581)scale(0.13 -0.13)">
       <defs>
        <path id="DejaVuSans-4b" d="M 628 4666 
L 1259 4666 
L 1259 2694 
L 3353 4666 
L 4166 4666 
L 1850 2491 
L 4331 0 
L 3500 0 
L 1259 2247 
L 1259 0 
L 628 0 
L 628 4666 
z
" transform="scale(0.015625)"/>
        <path id="DejaVuSans-56" d="M 1831 0 
L 50 4666 
L 709 4666 
L 2188 738 
L 3669 4666 
L 4325 4666 
L 2547 0 
L 1831 0 
z
" transform="scale(0.015625)"/>
        <path id="DejaVuSans-67" d="M 2906 1791 
Q 2906 2416 2648 2759 
Q 2391 3103 1925 3103 
Q 1463 3103 1205 2759 
Q 947 2416 947 1791 
Q 947 1169 1205 825 
Q 1463 481 1925 481 
Q 2391 481 2648 825 
Q 2906 1169 2906 1791 
z
M 3481 434 
Q 3481 -459 3084 -895 
Q 2688 -1331 1869 -1331 
Q 1566 -1331 1297 -1286 
Q 1028 -1241 775 -1147 
L 775 -588 
Q 1028 -725 1275 -790 
Q 1522 -856 1778 -856 
Q 2344 -856 2625 -561 
Q 2906 -266 2906 331 
L 2906 616 
Q 2728 306 2450 153 
Q 2172 0 1784 0 
Q 1141 0 747 490 
Q 353 981 353 1791 
Q 353 2603 747 3093 
Q 1141 3584 1784 3584 
Q 2172 3584 2450 3431 
Q 2728 3278 2906 2969 
L 2906 3500 
L 3481 3500 
L 3481 434 
z
" transform="scale(0.015625)"/>
       </defs>
       <use xlink:href="#DejaVuSans-4b"/>
       <use xlink:href="#DejaVuSans-6c" x="65.576172"/>
       <use xlink:href="#DejaVuSans-65" x="93.359375"/>
       <use xlink:href="#DejaVuSans-74" x="154.882812"/>
       <use xlink:href="#DejaVuSans-74" x="194.091797"/>
       <use xlink:href="#DejaVuSans-20" x="233.300781"/>
       <use xlink:href="#DejaVuSans-3d" x="265.087891"/>
       <use xlink:href="#DejaVuSans-20" x="348.876953"/>
       <use xlink:href="#DejaVuSans-56" x="380.664062"/>
       <use xlink:href="#DejaVuSans-65" x="441.322266"/>
       <use xlink:href="#DejaVuSans-72" x="502.845703"/>
       <use xlink:href="#DejaVuSans-6c" x="543.958984"/>
       <use xlink:href="#DejaVuSans-61" x="571.742188"/>
       <use xlink:href="#DejaVuSans-67" x="633.021484"/>
      </g>
     </g>
    </g>
    <g id="ytick_4">
     <g id="text_10">
      <!-- Fantasy = Thema -->
      <g style="fill: #999999" transform="translate(51.205 133.891888)scale(0.13 -0.13)">
       <defs>
        <path id="DejaVuSans-46" d="M 628 4666 
L 3309 4666 
L 3309 4134 
L 1259 4134 
L 1259 2759 
L 3109 2759 
L 3109 2228 
L 1259 2228 
L 1259 0 
L 628 0 
L 628 4666 
z
" transform="scale(0.015625)"/>
        <path id="DejaVuSans-73" d="M 2834 3397 
L 2834 2853 
Q 2591 2978 2328 3040 
Q 2066 3103 1784 3103 
Q 1356 3103 1142 2972 
Q 928 2841 928 2578 
Q 928 2378 1081 2264 
Q 1234 2150 1697 2047 
L 1894 2003 
Q 2506 1872 2764 1633 
Q 3022 1394 3022 966 
Q 3022 478 2636 193 
Q 2250 -91 1575 -91 
Q 1294 -91 989 -36 
Q 684 19 347 128 
L 347 722 
Q 666 556 975 473 
Q 1284 391 1588 391 
Q 1994 391 2212 530 
Q 2431 669 2431 922 
Q 2431 1156 2273 1281 
Q 2116 1406 1581 1522 
L 1381 1569 
Q 847 1681 609 1914 
Q 372 2147 372 2553 
Q 372 3047 722 3315 
Q 1072 3584 1716 3584 
Q 2034 3584 2315 3537 
Q 2597 3491 2834 3397 
z
" transform="scale(0.015625)"/>
        <path id="DejaVuSans-79" d="M 2059 -325 
Q 1816 -950 1584 -1140 
Q 1353 -1331 966 -1331 
L 506 -1331 
L 506 -850 
L 844 -850 
Q 1081 -850 1212 -737 
Q 1344 -625 1503 -206 
L 1606 56 
L 191 3500 
L 800 3500 
L 1894 763 
L 2988 3500 
L 3597 3500 
L 2059 -325 
z
" transform="scale(0.015625)"/>
        <path id="DejaVuSans-6d" d="M 3328 2828 
Q 3544 3216 3844 3400 
Q 4144 3584 4550 3584 
Q 5097 3584 5394 3201 
Q 5691 2819 5691 2113 
L 5691 0 
L 5113 0 
L 5113 2094 
Q 5113 2597 4934 2840 
Q 4756 3084 4391 3084 
Q 3944 3084 3684 2787 
Q 3425 2491 3425 1978 
L 3425 0 
L 2847 0 
L 2847 2094 
Q 2847 2600 2669 2842 
Q 2491 3084 2119 3084 
Q 1678 3084 1418 2786 
Q 1159 2488 1159 1978 
L 1159 0 
L 581 0 
L 581 3500 
L 1159 3500 
L 1159 2956 
Q 1356 3278 1631 3431 
Q 1906 3584 2284 3584 
Q 2666 3584 2933 3390 
Q 3200 3197 3328 2828 
z
" transform="scale(0.015625)"/>
       </defs>
       <use xlink:href="#DejaVuSans-46"/>
       <use xlink:href="#DejaVuSans-61" x="48.394531"/>
       <use xlink:href="#DejaVuSans-6e" x="109.673828"/>
       <use xlink:href="#DejaVuSans-74" x="173.052734"/>
       <use xlink:href="#DejaVuSans-61" x="212.261719"/>
       <use xlink:href="#DejaVuSans-73" x="273.541016"/>
       <use xlink:href="#DejaVuSans-79" x="325.640625"/>
       <use xlink:href="#DejaVuSans-20" x="384.820312"/>
       <use xlink:href="#DejaVuSans-3d" x="416.607422"/>
       <use xlink:href="#DejaVuSans-20" x="500.396484"/>
       <use xlink:href="#DejaVuSans-54" x="532.183594"/>
       <use xlink:href="#DejaVuSans-68" x="593.267578"/>
       <use xlink:href="#DejaVuSans-65" x="656.646484"/>
       <use xlink:href="#DejaVuSans-6d" x="718.169922"/>
       <use xlink:href="#DejaVuSans-61" x="815.582031"/>
      </g>
     </g>
    </g>
    <g id="ytick_5">
     <g id="text_11">
      <!-- 56 = Alter in Jahren -->
      <g style="fill: #999999" transform="translate(37.108125 95.550195)scale(0.13 -0.13)">
       <use xlink:href="#DejaVuSans-35"/>
       <use xlink:href="#DejaVuSans-36" x="63.623047"/>
       <use xlink:href="#DejaVuSans-20" x="127.246094"/>
       <use xlink:href="#DejaVuSans-3d" x="159.033203"/>
       <use xlink:href="#DejaVuSans-20" x="242.822266"/>
       <use xlink:href="#DejaVuSans-41" x="274.609375"/>
       <use xlink:href="#DejaVuSans-6c" x="343.017578"/>
       <use xlink:href="#DejaVuSans-74" x="370.800781"/>
       <use xlink:href="#DejaVuSans-65" x="410.009766"/>
       <use xlink:href="#DejaVuSans-72" x="471.533203"/>
       <use xlink:href="#DejaVuSans-20" x="512.646484"/>
       <use xlink:href="#DejaVuSans-69" x="544.433594"/>
       <use xlink:href="#DejaVuSans-6e" x="572.216797"/>
       <use xlink:href="#DejaVuSans-20" x="635.595703"/>
       <use xlink:href="#DejaVuSans-4a" x="667.382812"/>
       <use xlink:href="#DejaVuSans-61" x="696.875"/>
       <use xlink:href="#DejaVuSans-68" x="758.154297"/>
       <use xlink:href="#DejaVuSans-72" x="821.533203"/>
       <use xlink:href="#DejaVuSans-65" x="860.396484"/>
       <use xlink:href="#DejaVuSans-6e" x="921.919922"/>
      </g>
     </g>
    </g>
    <g id="ytick_6">
     <g id="text_12">
      <!-- Fiktive Romane = Genre -->
      <g style="fill: #999999" transform="translate(7.2 57.208502)scale(0.13 -0.13)">
       <defs>
        <path id="DejaVuSans-76" d="M 191 3500 
L 800 3500 
L 1894 563 
L 2988 3500 
L 3597 3500 
L 2284 0 
L 1503 0 
L 191 3500 
z
" transform="scale(0.015625)"/>
        <path id="DejaVuSans-47" d="M 3809 666 
L 3809 1919 
L 2778 1919 
L 2778 2438 
L 4434 2438 
L 4434 434 
Q 4069 175 3628 42 
Q 3188 -91 2688 -91 
Q 1594 -91 976 548 
Q 359 1188 359 2328 
Q 359 3472 976 4111 
Q 1594 4750 2688 4750 
Q 3144 4750 3555 4637 
Q 3966 4525 4313 4306 
L 4313 3634 
Q 3963 3931 3569 4081 
Q 3175 4231 2741 4231 
Q 1884 4231 1454 3753 
Q 1025 3275 1025 2328 
Q 1025 1384 1454 906 
Q 1884 428 2741 428 
Q 3075 428 3337 486 
Q 3600 544 3809 666 
z
" transform="scale(0.015625)"/>
       </defs>
       <use xlink:href="#DejaVuSans-46"/>
       <use xlink:href="#DejaVuSans-69" x="50.269531"/>
       <use xlink:href="#DejaVuSans-6b" x="78.052734"/>
       <use xlink:href="#DejaVuSans-74" x="135.962891"/>
       <use xlink:href="#DejaVuSans-69" x="175.171875"/>
       <use xlink:href="#DejaVuSans-76" x="202.955078"/>
       <use xlink:href="#DejaVuSans-65" x="262.134766"/>
       <use xlink:href="#DejaVuSans-20" x="323.658203"/>
       <use xlink:href="#DejaVuSans-52" x="355.445312"/>
       <use xlink:href="#DejaVuSans-6f" x="420.427734"/>
       <use xlink:href="#DejaVuSans-6d" x="481.609375"/>
       <use xlink:href="#DejaVuSans-61" x="579.021484"/>
       <use xlink:href="#DejaVuSans-6e" x="640.300781"/>
       <use xlink:href="#DejaVuSans-65" x="703.679688"/>
       <use xlink:href="#DejaVuSans-20" x="765.203125"/>
       <use xlink:href="#DejaVuSans-3d" x="796.990234"/>
       <use xlink:href="#DejaVuSans-20" x="880.779297"/>
       <use xlink:href="#DejaVuSans-47" x="912.566406"/>
       <use xlink:href="#DejaVuSans-65" x="990.056641"/>
       <use xlink:href="#DejaVuSans-6e" x="1051.580078"/>
       <use xlink:href="#DejaVuSans-72" x="1114.958984"/>
       <use xlink:href="#DejaVuSans-65" x="1153.822266"/>
      </g>
     </g>
    </g>
    <g id="ytick_7">
     <g id="text_13">
      <!--  Seitenanzahl -->
      <g transform="translate(77.020156 248.916966)scale(0.13 -0.13)">
       <use xlink:href="#DejaVuSans-20"/>
       <use xlink:href="#DejaVuSans-53" x="31.787109"/>
       <use xlink:href="#DejaVuSans-65" x="95.263672"/>
       <use xlink:href="#DejaVuSans-69" x="156.787109"/>
       <use xlink:href="#DejaVuSans-74" x="184.570312"/>
       <use xlink:href="#DejaVuSans-65" x="223.779297"/>
       <use xlink:href="#DejaVuSans-6e" x="285.302734"/>
       <use xlink:href="#DejaVuSans-61" x="348.681641"/>
       <use xlink:href="#DejaVuSans-6e" x="409.960938"/>
       <use xlink:href="#DejaVuSans-7a" x="473.339844"/>
       <use xlink:href="#DejaVuSans-61" x="525.830078"/>
       <use xlink:href="#DejaVuSans-68" x="587.109375"/>
       <use xlink:href="#DejaVuSans-6c" x="650.488281"/>
      </g>
     </g>
    </g>
    <g id="ytick_8">
     <g id="text_14">
      <!--  Autor -->
      <g transform="translate(125.536562 210.575273)scale(0.13 -0.13)">
       <use xlink:href="#DejaVuSans-20"/>
       <use xlink:href="#DejaVuSans-41" x="31.787109"/>
       <use xlink:href="#DejaVuSans-75" x="100.195312"/>
       <use xlink:href="#DejaVuSans-74" x="163.574219"/>
       <use xlink:href="#DejaVuSans-6f" x="202.783203"/>
       <use xlink:href="#DejaVuSans-72" x="263.964844"/>
      </g>
     </g>
    </g>
    <g id="ytick_9">
     <g id="text_15">
      <!--  Verlag -->
      <g transform="translate(120.003437 172.23358)scale(0.13 -0.13)">
       <use xlink:href="#DejaVuSans-20"/>
       <use xlink:href="#DejaVuSans-56" x="31.787109"/>
       <use xlink:href="#DejaVuSans-65" x="92.445312"/>
       <use xlink:href="#DejaVuSans-72" x="153.96875"/>
       <use xlink:href="#DejaVuSans-6c" x="195.082031"/>
       <use xlink:href="#DejaVuSans-61" x="222.865234"/>
       <use xlink:href="#DejaVuSans-67" x="284.144531"/>
      </g>
     </g>
    </g>
    <g id="ytick_10">
     <g id="text_16">
      <!--  Thema -->
      <g transform="translate(116.255781 133.891888)scale(0.13 -0.13)">
       <use xlink:href="#DejaVuSans-20"/>
       <use xlink:href="#DejaVuSans-54" x="31.787109"/>
       <use xlink:href="#DejaVuSans-68" x="92.871094"/>
       <use xlink:href="#DejaVuSans-65" x="156.25"/>
       <use xlink:href="#DejaVuSans-6d" x="217.773438"/>
       <use xlink:href="#DejaVuSans-61" x="315.185547"/>
      </g>
     </g>
    </g>
    <g id="ytick_11">
     <g id="text_17">
      <!--  Alter in Jahren -->
      <g transform="translate(68.675781 95.550195)scale(0.13 -0.13)">
       <use xlink:href="#DejaVuSans-20"/>
       <use xlink:href="#DejaVuSans-41" x="31.787109"/>
       <use xlink:href="#DejaVuSans-6c" x="100.195312"/>
       <use xlink:href="#DejaVuSans-74" x="127.978516"/>
       <use xlink:href="#DejaVuSans-65" x="167.1875"/>
       <use xlink:href="#DejaVuSans-72" x="228.710938"/>
       <use xlink:href="#DejaVuSans-20" x="269.824219"/>
       <use xlink:href="#DejaVuSans-69" x="301.611328"/>
       <use xlink:href="#DejaVuSans-6e" x="329.394531"/>
       <use xlink:href="#DejaVuSans-20" x="392.773438"/>
       <use xlink:href="#DejaVuSans-4a" x="424.560547"/>
       <use xlink:href="#DejaVuSans-61" x="454.052734"/>
       <use xlink:href="#DejaVuSans-68" x="515.332031"/>
       <use xlink:href="#DejaVuSans-72" x="578.710938"/>
       <use xlink:href="#DejaVuSans-65" x="617.574219"/>
       <use xlink:href="#DejaVuSans-6e" x="679.097656"/>
      </g>
     </g>
    </g>
    <g id="ytick_12">
     <g id="text_18">
      <!--  Genre -->
      <g transform="translate(121.701562 57.208502)scale(0.13 -0.13)">
       <use xlink:href="#DejaVuSans-20"/>
       <use xlink:href="#DejaVuSans-47" x="31.787109"/>
       <use xlink:href="#DejaVuSans-65" x="109.277344"/>
       <use xlink:href="#DejaVuSans-6e" x="170.800781"/>
       <use xlink:href="#DejaVuSans-72" x="234.179688"/>
       <use xlink:href="#DejaVuSans-65" x="273.042969"/>
      </g>
     </g>
    </g>
   </g>
   <g id="patch_15">
    <path d="M 172.194687 270.43375 
L 618.594688 270.43375 
" style="fill: none; stroke: #000000; stroke-width: 0.8; stroke-linejoin: miter; stroke-linecap: square"/>
   </g>
   <g id="text_19">
    <!-- +0.18 -->
    <g style="fill: #ffffff" transform="translate(380.15634 55.580768)scale(0.12 -0.12)">
     <defs>
      <path id="DejaVuSans-2b" d="M 2944 4013 
L 2944 2272 
L 4684 2272 
L 4684 1741 
L 2944 1741 
L 2944 0 
L 2419 0 
L 2419 1741 
L 678 1741 
L 678 2272 
L 2419 2272 
L 2419 4013 
L 2944 4013 
z
" transform="scale(0.015625)"/>
     </defs>
     <use xlink:href="#DejaVuSans-2b"/>
     <use xlink:href="#DejaVuSans-30" x="83.789062"/>
     <use xlink:href="#DejaVuSans-2e" x="147.412109"/>
     <use xlink:href="#DejaVuSans-31" x="179.199219"/>
     <use xlink:href="#DejaVuSans-38" x="242.822266"/>
    </g>
   </g>
   <g id="text_20">
    <!-- +0.01 -->
    <g style="fill: #ff0051" transform="translate(269.358945 132.264154)scale(0.12 -0.12)">
     <use xlink:href="#DejaVuSans-2b"/>
     <use xlink:href="#DejaVuSans-30" x="83.789062"/>
     <use xlink:href="#DejaVuSans-2e" x="147.412109"/>
     <use xlink:href="#DejaVuSans-30" x="179.199219"/>
     <use xlink:href="#DejaVuSans-31" x="242.822266"/>
    </g>
   </g>
   <g id="text_21">
    <!-- +0.01 -->
    <g style="fill: #ff0051" transform="translate(250.786174 170.605846)scale(0.12 -0.12)">
     <use xlink:href="#DejaVuSans-2b"/>
     <use xlink:href="#DejaVuSans-30" x="83.789062"/>
     <use xlink:href="#DejaVuSans-2e" x="147.412109"/>
     <use xlink:href="#DejaVuSans-30" x="179.199219"/>
     <use xlink:href="#DejaVuSans-31" x="242.822266"/>
    </g>
   </g>
   <g id="text_22">
    <!-- +0 -->
    <g style="fill: #ff0051" transform="translate(237.584319 208.947539)scale(0.12 -0.12)">
     <use xlink:href="#DejaVuSans-2b"/>
     <use xlink:href="#DejaVuSans-30" x="83.789062"/>
    </g>
   </g>
   <g id="text_23">
    <!-- −0.02 -->
    <g style="fill: #008bfb" transform="translate(193.599077 93.922461)scale(0.12 -0.12)">
     <defs>
      <path id="DejaVuSans-2212" d="M 678 2272 
L 4684 2272 
L 4684 1741 
L 678 1741 
L 678 2272 
z
" transform="scale(0.015625)"/>
      <path id="DejaVuSans-32" d="M 1228 531 
L 3431 531 
L 3431 0 
L 469 0 
L 469 531 
Q 828 903 1448 1529 
Q 2069 2156 2228 2338 
Q 2531 2678 2651 2914 
Q 2772 3150 2772 3378 
Q 2772 3750 2511 3984 
Q 2250 4219 1831 4219 
Q 1534 4219 1204 4116 
Q 875 4013 500 3803 
L 500 4441 
Q 881 4594 1212 4672 
Q 1544 4750 1819 4750 
Q 2544 4750 2975 4387 
Q 3406 4025 3406 3419 
Q 3406 3131 3298 2873 
Q 3191 2616 2906 2266 
Q 2828 2175 2409 1742 
Q 1991 1309 1228 531 
z
" transform="scale(0.015625)"/>
     </defs>
     <use xlink:href="#DejaVuSans-2212"/>
     <use xlink:href="#DejaVuSans-30" x="83.789062"/>
     <use xlink:href="#DejaVuSans-2e" x="147.412109"/>
     <use xlink:href="#DejaVuSans-30" x="179.199219"/>
     <use xlink:href="#DejaVuSans-32" x="242.822266"/>
    </g>
   </g>
   <g id="text_24">
    <!-- −0 -->
    <g style="fill: #008bfb" transform="translate(206.385171 247.289232)scale(0.12 -0.12)">
     <use xlink:href="#DejaVuSans-2212"/>
     <use xlink:href="#DejaVuSans-30" x="83.789062"/>
    </g>
   </g>
  </g>
  <g id="axes_2">
   <g id="matplotlib.axis_3">
    <g id="xtick_7">
     <g id="line2d_17">
      <g>
       <use xlink:href="#mf0b64e787f" x="229.268975" y="270.43375" style="stroke: #000000; stroke-width: 0.8"/>
      </g>
     </g>
     <g id="text_25">
      <!--  -->
      <g transform="translate(209.268975 286.551875)scale(0.12 -0.12)"/>
      <!-- $E[f(X)]$ -->
      <g transform="translate(209.268975 299.98925)scale(0.12 -0.12)">
       <defs>
        <path id="DejaVuSans-Oblique-45" d="M 1081 4666 
L 4031 4666 
L 3928 4134 
L 1606 4134 
L 1338 2753 
L 3566 2753 
L 3463 2222 
L 1234 2222 
L 909 531 
L 3284 531 
L 3181 0 
L 172 0 
L 1081 4666 
z
" transform="scale(0.015625)"/>
        <path id="DejaVuSans-5b" d="M 550 4863 
L 1875 4863 
L 1875 4416 
L 1125 4416 
L 1125 -397 
L 1875 -397 
L 1875 -844 
L 550 -844 
L 550 4863 
z
" transform="scale(0.015625)"/>
        <path id="DejaVuSans-Oblique-66" d="M 3059 4863 
L 2969 4384 
L 2419 4384 
Q 2106 4384 1964 4261 
Q 1822 4138 1753 3809 
L 1691 3500 
L 2638 3500 
L 2553 3053 
L 1606 3053 
L 1013 0 
L 434 0 
L 1031 3053 
L 481 3053 
L 563 3500 
L 1113 3500 
L 1159 3744 
Q 1278 4363 1576 4613 
Q 1875 4863 2516 4863 
L 3059 4863 
z
" transform="scale(0.015625)"/>
        <path id="DejaVuSans-28" d="M 1984 4856 
Q 1566 4138 1362 3434 
Q 1159 2731 1159 2009 
Q 1159 1288 1364 580 
Q 1569 -128 1984 -844 
L 1484 -844 
Q 1016 -109 783 600 
Q 550 1309 550 2009 
Q 550 2706 781 3412 
Q 1013 4119 1484 4856 
L 1984 4856 
z
" transform="scale(0.015625)"/>
        <path id="DejaVuSans-Oblique-58" d="M 878 4666 
L 1516 4666 
L 2316 2981 
L 3763 4666 
L 4500 4666 
L 2578 2438 
L 3738 0 
L 3103 0 
L 2163 1966 
L 459 0 
L -275 0 
L 1906 2509 
L 878 4666 
z
" transform="scale(0.015625)"/>
        <path id="DejaVuSans-29" d="M 513 4856 
L 1013 4856 
Q 1481 4119 1714 3412 
Q 1947 2706 1947 2009 
Q 1947 1309 1714 600 
Q 1481 -109 1013 -844 
L 513 -844 
Q 928 -128 1133 580 
Q 1338 1288 1338 2009 
Q 1338 2731 1133 3434 
Q 928 4138 513 4856 
z
" transform="scale(0.015625)"/>
        <path id="DejaVuSans-5d" d="M 1947 4863 
L 1947 -844 
L 622 -844 
L 622 -397 
L 1369 -397 
L 1369 4416 
L 622 4416 
L 622 4863 
L 1947 4863 
z
" transform="scale(0.015625)"/>
       </defs>
       <use xlink:href="#DejaVuSans-Oblique-45" transform="translate(0 0.015625)"/>
       <use xlink:href="#DejaVuSans-5b" transform="translate(63.183594 0.015625)"/>
       <use xlink:href="#DejaVuSans-Oblique-66" transform="translate(102.197266 0.015625)"/>
       <use xlink:href="#DejaVuSans-28" transform="translate(137.402344 0.015625)"/>
       <use xlink:href="#DejaVuSans-Oblique-58" transform="translate(176.416016 0.015625)"/>
       <use xlink:href="#DejaVuSans-29" transform="translate(244.921875 0.015625)"/>
       <use xlink:href="#DejaVuSans-5d" transform="translate(283.935547 0.015625)"/>
      </g>
     </g>
    </g>
    <g id="xtick_8">
     <g id="line2d_18">
      <g>
       <use xlink:href="#mf0b64e787f" x="229.268993" y="270.43375" style="stroke: #000000; stroke-width: 0.8"/>
      </g>
     </g>
     <g id="text_26">
      <!--  -->
      <g style="fill: #999999" transform="translate(251.268993 287.551875)scale(0.12 -0.12)"/>
      <!-- $ = 0.682$ -->
      <g style="fill: #999999" transform="translate(251.268993 300.98925)scale(0.12 -0.12)">
       <use xlink:href="#DejaVuSans-3d" transform="translate(19.482422 0.78125)"/>
       <use xlink:href="#DejaVuSans-30" transform="translate(122.753906 0.78125)"/>
       <use xlink:href="#DejaVuSans-2e" transform="translate(186.376953 0.78125)"/>
       <use xlink:href="#DejaVuSans-36" transform="translate(218.164062 0.78125)"/>
       <use xlink:href="#DejaVuSans-38" transform="translate(281.787109 0.78125)"/>
       <use xlink:href="#DejaVuSans-32" transform="translate(345.410156 0.78125)"/>
      </g>
     </g>
    </g>
   </g>
   <g id="patch_16">
    <path d="M 172.194687 270.43375 
L 618.594688 270.43375 
" style="fill: none; stroke: #000000; stroke-width: 0.8; stroke-linejoin: miter; stroke-linecap: square"/>
   </g>
  </g>
  <g id="axes_3">
   <g id="matplotlib.axis_4">
    <g id="xtick_9">
     <g id="line2d_19">
      <defs>
       <path id="md5b504034b" d="M 0 0 
L 0 -3.5 
" style="stroke: #000000; stroke-width: 0.8"/>
      </defs>
      <g>
       <use xlink:href="#md5b504034b" x="561.713553" y="25.81375" style="stroke: #000000; stroke-width: 0.8"/>
      </g>
     </g>
     <g id="text_27">
      <!-- $f(x)$ -->
      <g transform="translate(551.713553 16.318125)scale(0.12 -0.12)">
       <defs>
        <path id="DejaVuSans-Oblique-78" d="M 3841 3500 
L 2234 1784 
L 3219 0 
L 2559 0 
L 1819 1388 
L 531 0 
L -166 0 
L 1556 1844 
L 641 3500 
L 1300 3500 
L 1972 2234 
L 3144 3500 
L 3841 3500 
z
" transform="scale(0.015625)"/>
       </defs>
       <use xlink:href="#DejaVuSans-Oblique-66" transform="translate(0 0.015625)"/>
       <use xlink:href="#DejaVuSans-28" transform="translate(35.205078 0.015625)"/>
       <use xlink:href="#DejaVuSans-Oblique-78" transform="translate(74.21875 0.015625)"/>
       <use xlink:href="#DejaVuSans-29" transform="translate(133.398438 0.015625)"/>
      </g>
     </g>
    </g>
    <g id="xtick_10">
     <g id="line2d_20">
      <g>
       <use xlink:href="#md5b504034b" x="561.71357" y="25.81375" style="stroke: #000000; stroke-width: 0.8"/>
      </g>
     </g>
     <g id="text_28">
      <!-- $ = 0.87$ -->
      <g style="fill: #999999" transform="translate(573.71357 16.318125)scale(0.12 -0.12)">
       <use xlink:href="#DejaVuSans-3d" transform="translate(19.482422 0.78125)"/>
       <use xlink:href="#DejaVuSans-30" transform="translate(122.753906 0.78125)"/>
       <use xlink:href="#DejaVuSans-2e" transform="translate(186.376953 0.78125)"/>
       <use xlink:href="#DejaVuSans-38" transform="translate(215.539062 0.78125)"/>
       <use xlink:href="#DejaVuSans-37" transform="translate(279.162109 0.78125)"/>
      </g>
     </g>
    </g>
   </g>
   <g id="patch_17">
    <path d="M 172.194687 270.43375 
L 618.594688 270.43375 
" style="fill: none; stroke: #000000; stroke-width: 0.8; stroke-linejoin: miter; stroke-linecap: square"/>
   </g>
  </g>
 </g>
 <defs>
  <clipPath id="p10680dd705">
   <rect x="172.194687" y="25.81375" width="446.4" height="244.62"/>
  </clipPath>
 </defs>
</svg>
