title,author,publisher,year,pages,genre,subgenre,rating
Harry Potter und der Stein der Weisen,Joanne K. Rowling,Carlsen,1997,335,Fiktive Romane,Fantasy,0.92
Phantastische Tierwesen und wo sie zu finden sind,Joanne K. Rowling,Carlsen,2017,304,Fiktive Romane,Fantasy,0.95
Die Tribute von Panem,Suzan Collings,Oetinger,2009,414,Fiktive Romane,Fantasy,0.95
Lehrerin einer neuen Zeit,Laura Baldini,Piper,2020,368,Fiktive Romane,Historisch,0.85
Eine kurze Geschichte der Menschheit,Yuval Noah Harari,Pantheon,2015,528,Sachbuch,Gesellschaft,0.40
Vom Winde verweht,Margaret Mitchel,Ullistein Taschenbuch Verlag,1936,1120,Realistische Erzählung,Romanze,0.28
Schnelles Denken langsames Denken,Daniel Kahneman,Penguin,2016,624,Sachbuch,Gesellschaft,0.38
Angela Merkel - Die Kanzlerin und ihre Zeit,Ralph Bollmann,C.H.Beck,2022,800,Sachbuch,biography,0.42
Winnetou I,Karl May,Karl-May-Verlag,1893,549,Realistische Erzählung,Western,0.42
Buddenbrooks - Verfall einer Familie,Thomas Mann,Fischer,1901,728,Realistische Erzählung,Gesellschaft,0.39
Was wir sind und was wir sein könnten,Gerald Hüther,Fischer,2017,256,Sachbuch,Gesellschaft,0.49
Glück kommt selten allein…,Eckardt von Hirschhausen,Rowohlt,2009,383,Sachbuch,Gesellschaft,0.48
Der Medicus,Noah Gordon,Heyne,1987,864,Fiktive Romane,Historisch,0.70
Dune der Wüstenplanet,Frank Herbert,Heyne,1966,800,Fiktive Romane,Fantasy,0.85
Der Herr der Ringe - Die Gefährten,J.R.R. Tolkien,Klett,1966,491,Fiktive Romane,Fantasy,0.87
Der Name der Rose,Umberto Eco,Hanser,1982,654,Fiktive Romane,Historisch,0.80
Sakrileg,Dan Brown,Bastei Luebbe,2000,605,Fiktive Romane,Thriller,0.80
Die unendliche Geschichte,Michael Ende,Thienemann,1979,428,Fiktive Romane,Fantasy,0.87
Schattenelfen - Der gläserne Kaiser,Bernhard Hennen,Heyne,2022,448,Fiktive Romane,Fantasy,0.95
Die Herren von Winterfell (Game of Thrones),George R.R. Martin,Penguin Random House,1996,798,Fiktive Romane,Fantasy,0.87
